eye
…
blink(amd)
#> Warning: Data seems already myopic - no changes made. ?myop for help
#> Warning: va_etdrs_letters (from etdrs): NA introduced - implausible values
#> Eyes coded 0:1. Interpreting r = 0
#> 
#> ── blink ────────────────────────────────────────────────────────────────────────────────
#> ══ Data ════════════════════════════════
#> # A tibble: 40,764 x 7
#>    id       eye followupdays baselineage gender va_etdrs_letters injectionnumber
#>    <chr>  <dbl>        <dbl>       <dbl>  <dbl> <logmar>                   <dbl>
#>  1 00133…     1            0          99      1 0.82                           1
#>  2 00133…     1           28          99      1 0.08                           2
#>  3 00133…     1           67          99      1 0.70                           3
#>  4 00133…     1          147          99      1 0.90                           4
#>  5 00133…     1          259          99      1 1.06                           5
#>  6 00133…     1          343          99      1 1.02                           6
#>  7 00133…     1          399          99      1 0.96                           7
#>  8 00133…     1          534          99      1 1.06                           8
#>  9 00244…     0            0          82      0 0.40                           1
#> 10 00244…     0           39          82      0 0.46                           2
#> # … with 40,754 more rows
…
