Your data in a blink of an eye — blink • eye
…
Rename columns 2

    Examples

library(eyedata)
blink(amd2)
#> The lifecycle of blink() has expired. It will no longer be
#>   maintained, but will be kept in the package.
#> Warning: Data seems already myopic - no changes made. ?myop for help
#> From etdrs. Could be etdrs, logmar, snellendec
#> 
#> ── blink ───────────────────────────────────────────────────────────────────────
#> ══ Data ════════════════════════════════
#> # A tibble: 40,764 × 7
#>    patid sex    age0 eye    time va       inj_no
#>    <chr> <chr> <dbl> <chr> <dbl> <logmar>  <dbl>
#>  1 id_1  f        99 l         0 0.82          1
#>  2 id_1  f        99 l        28 0.08          2
#>  3 id_1  f        99 l        67 0.70          3
#>  4 id_1  f        99 l       147 0.90          4
#>  5 id_1  f        99 l       259 1.06          5
#>  6 id_1  f        99 l       343 1.02          6
#>  7 id_1  f        99 l       399 0.96          7
#>  8 id_1  f        99 l       534 1.06          8
#>  9 id_2  m        82 r         0 0.40          1
#> 10 id_2  m        82 r        39 0.46          2
#> # ℹ 40,754 more rows
…
